{
  "htmlElements": {
    "tags": [
      "a",
      "article",
      "blockquote",
      "body",
      "br",
      "button",
      "code",
      "dd",
      "del",
      "div",
      "dl",
      "dt",
      "em",
      "footer",
      "form",
      "h1",
      "h2",
      "h3",
      "h4",
      "h5",
      "h6",
      "head",
      "header",
      "hr",
      "html",
      "i",
      "iframe",
      "img",
      "input",
      "label",
      "li",
      "link",
      "meta",
      "nav",
      "ol",
      "option",
      "p",
      "pre",
      "script",
      "section",
      "select",
      "span",
      "strong",
      "table",
      "tbody",
      "td",
      "textarea",
      "th",
      "thead",
      "title",
      "tr",
      "ul"
    ],
    "classes": [
      "align-items-center",
      "align-items-md-center",
      "bg-black",
      "bg-dark",
      "bg-transparent",
      "border",
      "border-0",
      "border-default",
      "btn",
      "btn-link",
      "btn-link-group",
      "btn-primary",
      "btn-style",
      "card",
      "card-body",
      "card-img-top",
      "code-tabs",
      "col-12",
      "col-lg-2",
      "col-lg-4",
      "col-lg-5",
      "col-lg-6",
      "col-lg-8",
      "col-md-10",
      "col-md-12",
      "col-sm-6",
      "collapse",
      "collapse-head",
      "collapse-wrapper",
      "container",
      "content",
      "d-flex",
      "display-1",
      "eta",
      "flex-column",
      "flex-md-row",
      "font-weight-bold",
      "form-control",
      "form-group",
      "h3",
      "h4",
      "highlight",
      "img-fluid",
      "info",
      "justify-content-around",
      "justify-content-center",
      "list-inline",
      "list-inline-item",
      "list-unstyled",
      "mb-0",
      "mb-3",
      "mb-4",
      "mb-5",
      "mb-lg-0",
      "mb-lg-5",
      "mb-md-0",
      "media",
      "media-body",
      "ml-auto",
      "ml-lg-4",
      "mr-2",
      "mr-3",
      "mr-md-4",
      "mt-1",
      "mt-5",
      "mx-auto",
      "nav",
      "nav-item",
      "nav-lang",
      "nav-link",
      "nav-tabs",
      "navbar",
      "navbar-brand",
      "navbar-collapse",
      "navbar-dark",
      "navbar-expand-lg",
      "navbar-nav",
      "navbar-toggler",
      "note",
      "notices",
      "offset-lg-1",
      "p-0",
      "p-2",
      "pb-0",
      "preloader",
      "pt-0",
      "py-5",
      "rounded-0",
      "rounded-lg",
      "row",
      "section",
      "social-icons",
      "sticky-top",
      "tab-content",
      "tab-pane",
      "text-center",
      "text-left",
      "text-primary",
      "text-sm-center",
      "text-white",
      "ti-calendar",
      "ti-email",
      "ti-facebook",
      "ti-github",
      "ti-instagram",
      "ti-linkedin",
      "ti-location-pin",
      "ti-menu",
      "ti-mobile",
      "ti-plus",
      "ti-time",
      "ti-twitter-alt",
      "ti-user",
      "tip",
      "title",
      "title-border"
    ],
    "ids": [
      "about",
      "blockquote",
      "blog",
      "code-and-syntax-highlighting",
      "collapse",
      "collapse-1",
      "collapse-2",
      "collapse-3",
      "contact",
      "education",
      "email",
      "emphasis",
      "en",
      "expertise",
      "fr",
      "heading-1",
      "heading-2",
      "heading-3",
      "heading-4",
      "heading-5",
      "heading-6",
      "heading-example",
      "home",
      "image",
      "inline-html",
      "link",
      "message",
      "name",
      "navigation",
      "notice",
      "ordered-list",
      "paragraph",
      "particles-js",
      "project",
      "publication",
      "select-language",
      "tab",
      "tables",
      "talk",
      "unordered-list",
      "youtube-video"
    ]
  }
}
